{
  "domain": "dev-5qavkts8.us.auth0.com",
  "clientId": "izhwhCW2FWJwE2FsrnbzexYpphLv8CdN",
  "audience": "http://localhost:3003/",
  "apiUri": "http://localhost:3003",
  "appUri": "http://localhost:4200",
  "errorPath": "/error"
}
